module gitlab.com/qiankaihua/go-http-server-common

go 1.18

require (
	github.com/dgraph-io/ristretto v0.1.0
	github.com/eko/gocache v1.2.0
	github.com/gin-gonic/gin v1.8.2
	github.com/hashicorp/go-uuid v1.0.2
	github.com/parkingwang/go-conf v0.0.0-20190301085522-64ef2227e7f2
	github.com/sirupsen/logrus v1.8.1
	github.com/spf13/viper v1.10.1
	github.com/stretchr/testify v1.8.1
	gopkg.in/natefinch/lumberjack.v2 v2.2.1
)

require (
	github.com/BurntSushi/toml v0.3.1 // indirect
	github.com/XiaoMi/pegasus-go-client v0.0.0-20210427083443-f3b6b08bc4c2 // indirect
	github.com/beorn7/perks v1.0.1 // indirect
	github.com/bradfitz/gomemcache v0.0.0-20190913173617-a41fca850d0b // indirect
	github.com/cenkalti/backoff/v4 v4.1.0 // indirect
	github.com/cespare/xxhash/v2 v2.1.2 // indirect
	github.com/davecgh/go-spew v1.1.1 // indirect
	github.com/dgryski/go-rendezvous v0.0.0-20200823014737-9f7001d12a5f // indirect
	github.com/dustin/go-humanize v1.0.0 // indirect
	github.com/fsnotify/fsnotify v1.5.1 // indirect
	github.com/gin-contrib/sse v0.1.0 // indirect
	github.com/go-playground/locales v0.14.0 // indirect
	github.com/go-playground/universal-translator v0.18.0 // indirect
	github.com/go-playground/validator/v10 v10.11.1 // indirect
	github.com/go-redis/redis/v8 v8.8.2 // indirect
	github.com/goccy/go-json v0.9.11 // indirect
	github.com/golang/glog v0.0.0-20160126235308-23def4e6c14b // indirect
	github.com/golang/protobuf v1.5.2 // indirect
	github.com/hashicorp/hcl v1.0.0 // indirect
	github.com/json-iterator/go v1.1.12 // indirect
	github.com/leodido/go-urn v1.2.1 // indirect
	github.com/magiconair/properties v1.8.5 // indirect
	github.com/mattn/go-isatty v0.0.16 // indirect
	github.com/matttproud/golang_protobuf_extensions v1.0.1 // indirect
	github.com/mitchellh/mapstructure v1.4.3 // indirect
	github.com/modern-go/concurrent v0.0.0-20180306012644-bacd9c7ef1dd // indirect
	github.com/modern-go/reflect2 v1.0.2 // indirect
	github.com/pegasus-kv/thrift v0.13.0 // indirect
	github.com/pelletier/go-toml v1.9.4 // indirect
	github.com/pelletier/go-toml/v2 v2.0.6 // indirect
	github.com/pkg/errors v0.9.1 // indirect
	github.com/pmezard/go-difflib v1.0.0 // indirect
	github.com/prometheus/client_golang v1.10.0 // indirect
	github.com/prometheus/client_model v0.2.0 // indirect
	github.com/prometheus/common v0.18.0 // indirect
	github.com/prometheus/procfs v0.6.0 // indirect
	github.com/spf13/afero v1.6.0 // indirect
	github.com/spf13/cast v1.4.1 // indirect
	github.com/spf13/jwalterweatherman v1.1.0 // indirect
	github.com/spf13/pflag v1.0.5 // indirect
	github.com/subosito/gotenv v1.2.0 // indirect
	github.com/ugorji/go/codec v1.2.7 // indirect
	github.com/vmihailenco/msgpack v4.0.4+incompatible // indirect
	go.opentelemetry.io/otel v0.19.0 // indirect
	go.opentelemetry.io/otel/metric v0.19.0 // indirect
	go.opentelemetry.io/otel/trace v0.19.0 // indirect
	golang.org/x/crypto v0.0.0-20211215153901-e495a2d5b3d3 // indirect
	golang.org/x/net v0.4.0 // indirect
	golang.org/x/sys v0.3.0 // indirect
	golang.org/x/text v0.5.0 // indirect
	google.golang.org/appengine v1.6.7 // indirect
	google.golang.org/protobuf v1.28.1 // indirect
	gopkg.in/ini.v1 v1.66.2 // indirect
	gopkg.in/tomb.v2 v2.0.0-20161208151619-d5d1b5820637 // indirect
	gopkg.in/yaml.v2 v2.4.0 // indirect
	gopkg.in/yaml.v3 v3.0.1 // indirect
	k8s.io/apimachinery v0.0.0-20191123233150-4c4803ed55e3 // indirect
)
